<svg width="1399" height="1048" viewBox="0 0 1399 1048" fill="none" xmlns="http://www.w3.org/2000/svg">
<mask id="mask0" mask-type="alpha" maskUnits="userSpaceOnUse" x="-117" y="-1" width="1516" height="1049">
<rect x="-117" y="-0.000198364" width="1516" height="1048" fill="#F1F8FF"/>
</mask>
<g mask="url(#mask0)">
<path d="M1409 351C1565.16 351 1692 240.538 1692 104C1692 -32.5384 1565.16 -143 1409 -143C1252.84 -143 1126 -32.5384 1126 104C1126 240.538 1252.84 351 1409 351Z" fill="#008DEA" stroke="#0099FE" stroke-width="2"/>
<path d="M1449 351C1605.16 351 1732 240.538 1732 104C1732 -32.5384 1605.16 -143 1449 -143C1292.84 -143 1166 -32.5384 1166 104C1166 240.538 1292.84 351 1449 351Z" fill="#0099FF" stroke="#0075FE" stroke-width="2"/>
<path d="M1479 351C1635.16 351 1762 240.538 1762 104C1762 -32.5384 1635.16 -143 1479 -143C1322.84 -143 1196 -32.5384 1196 104C1196 240.538 1322.84 351 1479 351Z" fill="#7BCAFF" fill-opacity="0.73" stroke="#0075FE" stroke-width="2"/>
</g>
</svg>
