<svg width="32" height="27" viewBox="0 0 32 27" fill="none" xmlns="http://www.w3.org/2000/svg">
<path d="M0 10.9648C0 17.0204 5.70583 21.922 12.7543 21.922C19.7924 21.922 25.507 17.0204 25.507 10.9648C25.507 4.90917 19.7924 0 12.7543 0C5.70583 0 0 4.90917 0 10.9648ZM4.04153 10.9648C4.04153 6.82548 7.93663 3.47609 12.7551 3.47609C17.564 3.47609 21.4671 6.82617 21.4671 10.9648C21.4671 15.1041 17.564 18.4542 12.7551 18.4542C7.93663 18.4542 4.04153 15.1034 4.04153 10.9648V10.9648ZM21.7335 21.0192L27.2185 26.4255C28.1018 27.1884 28.6716 27.1946 29.5693 26.4255L31.3304 24.9155C32.1962 24.1672 32.2498 23.6846 31.3304 22.8933L25.0125 18.2029L21.7335 21.0192Z" fill="#458FF6"/>
</svg>
